{
  "project_info": {
    "project_number": "797040579756",
    "firebase_url": "https://tripode-app.firebaseio.com",
    "project_id": "tripode-app",
    "storage_bucket": "tripode-app.appspot.com"
  },
  "client": [
    {
      "client_info": {
        "mobilesdk_app_id": "1:797040579756:android:7224e2fa476483ff",
        "android_client_info": {
          "package_name": "com.webandando.tripode"
        }
      },
      "oauth_client": [
        {
          "client_id": "797040579756-hv9f2g4ft570bue6o3jtbkuim7q834hk.apps.googleusercontent.com",
          "client_type": 3
        }
      ],
      "api_key": [
        {
          "current_key": "AIzaSyCx1fF1VqguBHUflNiHvFMr6CNDzRfzeQk"
        }
      ],
      "services": {
        "appinvite_service": {
          "other_platform_oauth_client": [
            {
              "client_id": "797040579756-hv9f2g4ft570bue6o3jtbkuim7q834hk.apps.googleusercontent.com",
              "client_type": 3
            },
            {
              "client_id": "797040579756-fh52ii7ei7v483jmfe992955l9ua8l2g.apps.googleusercontent.com",
              "client_type": 2,
              "ios_info": {
                "bundle_id": "com.farmaciastripode.app"
              }
            }
          ]
        }
      }
    }
  ],
  "configuration_version": "1"
}